{
  "ExternalFunctions": [
    {
      "Name": "Unity.Jobs.LowLevel.Unsafe.JobsUtility::GetWorkStealingRange",
      "FullName": "Unity.Jobs.LowLevel.Unsafe.JobsUtility.GetWorkStealingRange(ref Unity.Jobs.LowLevel.Unsafe.JobRanges ranges, int jobIndex, ref int beginIndex, ref int endIndex)_72EEAC320E5935AA"
    },
    {
      "Name": "Unity.Jobs.LowLevel.Unsafe.JobsUtility::PatchBufferMinMaxRanges",
      "FullName": "Unity.Jobs.LowLevel.Unsafe.JobsUtility.PatchBufferMinMaxRanges(System.IntPtr bufferRangePatchData, void* jobdata, int startIndex, int rangeSize)_9EB083F63620D8B8"
    },
    {
      "Name": "Unity.Collections.LowLevel.Unsafe.AtomicSafetyHandle::CheckWriteAndThrowNoEarlyOut_Injected",
      "FullName": "Unity.Collections.LowLevel.Unsafe.AtomicSafetyHandle.CheckWriteAndThrowNoEarlyOut_Injected(ref Unity.Collections.LowLevel.Unsafe.AtomicSafetyHandle handle)_BBB3C78A1E995A27"
    },
    {
      "Name": "Unity.Collections.LowLevel.Unsafe.AtomicSafetyHandle::CheckWriteAndBumpSecondaryVersion_Injected",
      "FullName": "Unity.Collections.LowLevel.Unsafe.AtomicSafetyHandle.CheckWriteAndBumpSecondaryVersion_Injected(ref Unity.Collections.LowLevel.Unsafe.AtomicSafetyHandle handle)_E2275DBE488243AF"
    },
    {
      "Name": "Unity.Collections.LowLevel.Unsafe.AtomicSafetyHandle::CheckReadAndThrowNoEarlyOut_Injected",
      "FullName": "Unity.Collections.LowLevel.Unsafe.AtomicSafetyHandle.CheckReadAndThrowNoEarlyOut_Injected(ref Unity.Collections.LowLevel.Unsafe.AtomicSafetyHandle handle)_5D0EA054F9B3B77F"
    },
    {
      "Name": "Unity.Collections.LowLevel.Unsafe.UnsafeUtility::Malloc",
      "FullName": "Unity.Collections.LowLevel.Unsafe.UnsafeUtility.Malloc(long size, int alignment, Unity.Collections.Allocator allocator)_FEDE5F1D450F457E"
    },
    {
      "Name": "Unity.Collections.LowLevel.Unsafe.UnsafeUtility::Free",
      "FullName": "Unity.Collections.LowLevel.Unsafe.UnsafeUtility.Free(void* memory, Unity.Collections.Allocator allocator)_1229507E56C0F090"
    },
    {
      "Name": "Unity.Burst.LowLevel.BurstCompilerService::GetOrCreateSharedMemory",
      "FullName": "Unity.Burst.LowLevel.BurstCompilerService.GetOrCreateSharedMemory(ref UnityEngine.Hash128 key, uint size_of, uint alignment)_C712A862C7F5F82B"
    },
    {
      "Name": "burst_abort",
      "FullName": "unused.burst_abort(System.String errorId, System.String message)_90265244C66C4094"
    }
  ]
}