{
  "ExternalFunctions": [
    {
      "Name": "Unity.Collections.LowLevel.Unsafe.UnsafeUtility::Free",
      "FullName": "Unity.Collections.LowLevel.Unsafe.UnsafeUtility.Free(void* memory, Unity.Collections.Allocator allocator)_1229507E56C0F090"
    },
    {
      "Name": "Unity.Profiling.LowLevel.Unsafe.ProfilerUnsafeUtility::BeginSample",
      "FullName": "Unity.Profiling.LowLevel.Unsafe.ProfilerUnsafeUtility.BeginSample(System.IntPtr markerPtr)_B9F8D63A48F3E38B"
    },
    {
      "Name": "Unity.Profiling.LowLevel.Unsafe.ProfilerUnsafeUtility::EndSample",
      "FullName": "Unity.Profiling.LowLevel.Unsafe.ProfilerUnsafeUtility.EndSample(System.IntPtr markerPtr)_997CF6962A606A55"
    },
    {
      "Name": "Unity.Collections.LowLevel.Unsafe.UnsafeUtility::Malloc",
      "FullName": "Unity.Collections.LowLevel.Unsafe.UnsafeUtility.Malloc(long size, int alignment, Unity.Collections.Allocator allocator)_FEDE5F1D450F457E"
    },
    {
      "Name": "Unity.Jobs.LowLevel.Unsafe.JobsUtility::get_IsExecutingJob",
      "FullName": "Unity.Jobs.LowLevel.Unsafe.JobsUtility.get_IsExecutingJob()_2DA3431E8BDE6884"
    },
    {
      "Name": "Unity.Jobs.JobHandle::ScheduleBatchedJobsAndComplete",
      "FullName": "Unity.Jobs.JobHandle.ScheduleBatchedJobsAndComplete(ref Unity.Jobs.JobHandle job)_8458C026FEAAC1B0"
    },
    {
      "Name": "Unity.Collections.LowLevel.Unsafe.AtomicSafetyHandle::CheckWriteAndThrowNoEarlyOut_Injected",
      "FullName": "Unity.Collections.LowLevel.Unsafe.AtomicSafetyHandle.CheckWriteAndThrowNoEarlyOut_Injected(ref Unity.Collections.LowLevel.Unsafe.AtomicSafetyHandle handle)_BBB3C78A1E995A27"
    },
    {
      "Name": "Unity.Collections.LowLevel.Unsafe.AtomicSafetyHandle::CheckDeallocateAndThrow_Injected",
      "FullName": "Unity.Collections.LowLevel.Unsafe.AtomicSafetyHandle.CheckDeallocateAndThrow_Injected(ref Unity.Collections.LowLevel.Unsafe.AtomicSafetyHandle handle)_90DC60F2E67B7353"
    },
    {
      "Name": "Unity.Collections.LowLevel.Unsafe.AtomicSafetyHandle::IsTempMemoryHandle_Injected",
      "FullName": "Unity.Collections.LowLevel.Unsafe.AtomicSafetyHandle.IsTempMemoryHandle_Injected(ref Unity.Collections.LowLevel.Unsafe.AtomicSafetyHandle handle)_9543CEE125CDB448"
    },
    {
      "Name": "Unity.Collections.LowLevel.Unsafe.AtomicSafetyHandle::Create_Injected",
      "FullName": "Unity.Collections.LowLevel.Unsafe.AtomicSafetyHandle.Create_Injected(ref Unity.Collections.LowLevel.Unsafe.AtomicSafetyHandle ret)_B90501C0654073BD"
    },
    {
      "Name": "Unity.Collections.LowLevel.Unsafe.AtomicSafetyHandle::Release_Injected",
      "FullName": "Unity.Collections.LowLevel.Unsafe.AtomicSafetyHandle.Release_Injected(ref Unity.Collections.LowLevel.Unsafe.AtomicSafetyHandle handle)_05C17E99A27F9A17"
    },
    {
      "Name": "Unity.Collections.LowLevel.Unsafe.AtomicSafetyHandle::UseSecondaryVersion",
      "FullName": "Unity.Collections.LowLevel.Unsafe.AtomicSafetyHandle.UseSecondaryVersion(ref Unity.Collections.LowLevel.Unsafe.AtomicSafetyHandle handle)_C259F5A3AD84C819"
    },
    {
      "Name": "Unity.Collections.LowLevel.Unsafe.UnsafeUtility::MemCpyReplicate",
      "FullName": "Unity.Collections.LowLevel.Unsafe.UnsafeUtility.MemCpyReplicate(void* destination, void* source, int size, int count)_9B216F41286FB142"
    },
    {
      "Name": "Unity.Burst.LowLevel.BurstCompilerService::GetOrCreateSharedMemory",
      "FullName": "Unity.Burst.LowLevel.BurstCompilerService.GetOrCreateSharedMemory(ref UnityEngine.Hash128 key, uint size_of, uint alignment)_C712A862C7F5F82B"
    },
    {
      "Name": "Unity.Collections.LowLevel.Unsafe.AtomicSafetyHandle::CheckReadAndThrowNoEarlyOut_Injected",
      "FullName": "Unity.Collections.LowLevel.Unsafe.AtomicSafetyHandle.CheckReadAndThrowNoEarlyOut_Injected(ref Unity.Collections.LowLevel.Unsafe.AtomicSafetyHandle handle)_5D0EA054F9B3B77F"
    },
    {
      "Name": "Unity.Collections.LowLevel.Unsafe.AtomicSafetyHandle::SetAllowSecondaryVersionWriting_Injected",
      "FullName": "Unity.Collections.LowLevel.Unsafe.AtomicSafetyHandle.SetAllowSecondaryVersionWriting_Injected(ref Unity.Collections.LowLevel.Unsafe.AtomicSafetyHandle handle, bool allowWriting)_FD8E41B4B41EC92C"
    },
    {
      "Name": "Unity.Collections.LowLevel.Unsafe.AtomicSafetyHandle::SetBumpSecondaryVersionOnScheduleWrite_Injected",
      "FullName": "Unity.Collections.LowLevel.Unsafe.AtomicSafetyHandle.SetBumpSecondaryVersionOnScheduleWrite_Injected(ref Unity.Collections.LowLevel.Unsafe.AtomicSafetyHandle handle, bool value)_2233875915ECDB24"
    },
    {
      "Name": "Unity.Baselib.LowLevel.Binding::Baselib_Memory_GetPageSizeInfo",
      "FullName": "Unity.Baselib.LowLevel.Binding.Baselib_Memory_GetPageSizeInfo(Unity.Baselib.LowLevel.Binding.Baselib_Memory_PageSizeInfo* outPagesSizeInfo)_C74537B56666A867"
    },
    {
      "Name": "Unity.Baselib.LowLevel.Binding::Baselib_Memory_SetPageState",
      "FullName": "Unity.Baselib.LowLevel.Binding.Baselib_Memory_SetPageState(System.IntPtr addressOfFirstPage, ulong pageSize, ulong pageCount, Unity.Baselib.LowLevel.Binding.Baselib_Memory_PageState pageState, Unity.Baselib.LowLevel.Binding.Baselib_ErrorState* errorState)_650B62E0688794E1"
    },
    {
      "Name": "Unity.Collections.LowLevel.Unsafe.AtomicSafetyHandle::GetTempMemoryHandle_Injected",
      "FullName": "Unity.Collections.LowLevel.Unsafe.AtomicSafetyHandle.GetTempMemoryHandle_Injected(ref Unity.Collections.LowLevel.Unsafe.AtomicSafetyHandle ret)_FCDF5C150EA4E096"
    },
    {
      "Name": "burst_abort",
      "FullName": "unused.burst_abort(System.String errorId, System.String message)_90265244C66C4094"
    }
  ]
}