{
  "ExternalFunctions": [
    {
      "Name": "Unity.Collections.LowLevel.Unsafe.AtomicSafetyHandle::CheckReadAndThrowNoEarlyOut_Injected",
      "FullName": "Unity.Collections.LowLevel.Unsafe.AtomicSafetyHandle.CheckReadAndThrowNoEarlyOut_Injected(ref Unity.Collections.LowLevel.Unsafe.AtomicSafetyHandle handle)_5D0EA054F9B3B77F"
    },
    {
      "Name": "Unity.Collections.LowLevel.Unsafe.UnsafeUtility::Malloc",
      "FullName": "Unity.Collections.LowLevel.Unsafe.UnsafeUtility.Malloc(long size, int alignment, Unity.Collections.Allocator allocator)_FEDE5F1D450F457E"
    },
    {
      "Name": "Unity.Collections.LowLevel.Unsafe.UnsafeUtility::Free",
      "FullName": "Unity.Collections.LowLevel.Unsafe.UnsafeUtility.Free(void* memory, Unity.Collections.Allocator allocator)_1229507E56C0F090"
    },
    {
      "Name": "Unity.Burst.LowLevel.BurstCompilerService::GetOrCreateSharedMemory",
      "FullName": "Unity.Burst.LowLevel.BurstCompilerService.GetOrCreateSharedMemory(ref UnityEngine.Hash128 key, uint size_of, uint alignment)_C712A862C7F5F82B"
    },
    {
      "Name": "Unity.Baselib.LowLevel.Binding::Baselib_Memory_GetPageSizeInfo",
      "FullName": "Unity.Baselib.LowLevel.Binding.Baselib_Memory_GetPageSizeInfo(Unity.Baselib.LowLevel.Binding.Baselib_Memory_PageSizeInfo* outPagesSizeInfo)_C74537B56666A867"
    },
    {
      "Name": "Unity.Baselib.LowLevel.Binding::Baselib_Memory_SetPageState",
      "FullName": "Unity.Baselib.LowLevel.Binding.Baselib_Memory_SetPageState(System.IntPtr addressOfFirstPage, ulong pageSize, ulong pageCount, Unity.Baselib.LowLevel.Binding.Baselib_Memory_PageState pageState, Unity.Baselib.LowLevel.Binding.Baselib_ErrorState* errorState)_650B62E0688794E1"
    },
    {
      "Name": "burst_abort",
      "FullName": "unused.burst_abort(System.String errorId, System.String message)_90265244C66C4094"
    }
  ]
}