%YAML 1.1
%TAG !u! tag:unity3d.com,2011:
--- !u!1001 &100100000
Prefab:
  m_ObjectHideFlags: 1
  serializedVersion: 2
  m_Modification:
    m_TransformParent: {fileID: 0}
    m_Modifications: []
    m_RemovedComponents: []
  m_SourcePrefab: {fileID: 0}
  m_RootGameObject: {fileID: 1654479973993400}
  m_IsPrefabAsset: 1
--- !u!1 &1654479973993400
GameObject:
  m_ObjectHideFlags: 0
  m_CorrespondingSourceObject: {fileID: 0}
  m_PrefabInternal: {fileID: 100100000}
  serializedVersion: 6
  m_Component:
  - component: {fileID: 4305370077531850}
  - component: {fileID: 114515811599406254}
  m_Layer: 0
  m_Name: Forest_NaturePackage
  m_TagString: Untagged
  m_Icon: {fileID: 0}
  m_NavMeshLayer: 0
  m_StaticEditorFlags: 0
  m_IsActive: 1
--- !u!4 &4305370077531850
Transform:
  m_ObjectHideFlags: 1
  m_CorrespondingSourceObject: {fileID: 0}
  m_PrefabInternal: {fileID: 100100000}
  m_GameObject: {fileID: 1654479973993400}
  m_LocalRotation: {x: -0, y: -0, z: -0, w: 1}
  m_LocalPosition: {x: 0, y: 0, z: 0}
  m_LocalScale: {x: 1, y: 1, z: 1}
  m_Children: []
  m_Father: {fileID: 0}
  m_RootOrder: 0
  m_LocalEulerAnglesHint: {x: 0, y: 0, z: 0}
--- !u!114 &114515811599406254
MonoBehaviour:
  m_ObjectHideFlags: 1
  m_CorrespondingSourceObject: {fileID: 0}
  m_PrefabInternal: {fileID: 100100000}
  m_GameObject: {fileID: 1654479973993400}
  m_Enabled: 1
  m_EditorHideFlags: 0
  m_Script: {fileID: 11500000, guid: 2a62da961baa74ed4b01773c490be9c3, type: 3}
  m_Name: 
  m_EditorClassIdentifier: 
  vegetationTypes:
  - treeName: Conifer1
    treePrefab: {fileID: 0}
    density: 0.0005
    minimumCriticalDistance: 5
    resourceType: 2
    resourceAmount: 500
    offset: {x: 0, y: 0, z: 0}
    subBiomes: []
    biomeId: 0
    prefabMode: 1
    useThisModel: 1
  - treeName: Conifer2
    treePrefab: {fileID: 0}
    density: 0.0005
    minimumCriticalDistance: 5
    resourceType: 2
    resourceAmount: 500
    offset: {x: 0, y: 0, z: 0}
    subBiomes: []
    biomeId: 0
    prefabMode: 1
    useThisModel: 1
  - treeName: Conifer3
    treePrefab: {fileID: 0}
    density: 0.0005
    minimumCriticalDistance: 5
    resourceType: 2
    resourceAmount: 500
    offset: {x: 0, y: 0, z: 0}
    subBiomes: []
    biomeId: 0
    prefabMode: 1
    useThisModel: 1
  - treeName: Conifer4
    treePrefab: {fileID: 0}
    density: 0.0005
    minimumCriticalDistance: 5
    resourceType: 2
    resourceAmount: 500
    offset: {x: 0, y: 0, z: 0}
    subBiomes: []
    biomeId: 0
    prefabMode: 1
    useThisModel: 1
  - treeName: Conifer5
    treePrefab: {fileID: 0}
    density: 0.0005
    minimumCriticalDistance: 5
    resourceType: 2
    resourceAmount: 500
    offset: {x: 0, y: 0, z: 0}
    subBiomes: []
    biomeId: 0
    prefabMode: 1
    useThisModel: 1
  - treeName: Conifer6
    treePrefab: {fileID: 0}
    density: 0.0005
    minimumCriticalDistance: 5
    resourceType: 2
    resourceAmount: 500
    offset: {x: 0, y: 0, z: 0}
    subBiomes: []
    biomeId: 0
    prefabMode: 1
    useThisModel: 1
  - treeName: Conifer7
    treePrefab: {fileID: 0}
    density: 0.0005
    minimumCriticalDistance: 5
    resourceType: 2
    resourceAmount: 500
    offset: {x: 0, y: 0, z: 0}
    subBiomes: []
    biomeId: 0
    prefabMode: 1
    useThisModel: 1
  - treeName: Conifer8
    treePrefab: {fileID: 0}
    density: 0.0005
    minimumCriticalDistance: 5
    resourceType: 2
    resourceAmount: 500
    offset: {x: 0, y: 0, z: 0}
    subBiomes: []
    biomeId: 0
    prefabMode: 1
    useThisModel: 1
  - treeName: PineTree01
    treePrefab: {fileID: 0}
    density: 0.0005
    minimumCriticalDistance: 5
    resourceType: 2
    resourceAmount: 500
    offset: {x: 0, y: 0, z: 0}
    subBiomes: []
    biomeId: 1
    prefabMode: 1
    useThisModel: 1
  - treeName: PineTree02
    treePrefab: {fileID: 0}
    density: 0.0005
    minimumCriticalDistance: 5
    resourceType: 2
    resourceAmount: 500
    offset: {x: 0, y: 0, z: 0}
    subBiomes: []
    biomeId: 1
    prefabMode: 1
    useThisModel: 1
  - treeName: PineTree03
    treePrefab: {fileID: 0}
    density: 0.0005
    minimumCriticalDistance: 5
    resourceType: 2
    resourceAmount: 500
    offset: {x: 0, y: 0, z: 0}
    subBiomes: []
    biomeId: 1
    prefabMode: 1
    useThisModel: 1
  - treeName: Tree02
    treePrefab: {fileID: 0}
    density: 0.0005
    minimumCriticalDistance: 5
    resourceType: 2
    resourceAmount: 500
    offset: {x: 0, y: 0, z: 0}
    subBiomes: []
    biomeId: 2
    prefabMode: 1
    useThisModel: 1
  - treeName: Tree03
    treePrefab: {fileID: 0}
    density: 0.0005
    minimumCriticalDistance: 5
    resourceType: 2
    resourceAmount: 500
    offset: {x: 0, y: 0, z: 0}
    subBiomes: []
    biomeId: 2
    prefabMode: 1
    useThisModel: 1
  - treeName: Tree04
    treePrefab: {fileID: 0}
    density: 0.0005
    minimumCriticalDistance: 5
    resourceType: 2
    resourceAmount: 500
    offset: {x: 0, y: 0, z: 0}
    subBiomes: []
    biomeId: 2
    prefabMode: 1
    useThisModel: 1
  - treeName: Tree05
    treePrefab: {fileID: 0}
    density: 0.0005
    minimumCriticalDistance: 5
    resourceType: 2
    resourceAmount: 500
    offset: {x: 0, y: 0, z: 0}
    subBiomes: []
    biomeId: 2
    prefabMode: 1
    useThisModel: 1
  - treeName: Tree06
    treePrefab: {fileID: 0}
    density: 0.0005
    minimumCriticalDistance: 5
    resourceType: 2
    resourceAmount: 500
    offset: {x: 0, y: 0, z: 0}
    subBiomes: []
    biomeId: 2
    prefabMode: 1
    useThisModel: 1
  - treeName: Tree08
    treePrefab: {fileID: 0}
    density: 0.0005
    minimumCriticalDistance: 5
    resourceType: 2
    resourceAmount: 500
    offset: {x: 0, y: 0, z: 0}
    subBiomes: []
    biomeId: 2
    prefabMode: 1
    useThisModel: 1
  biomes:
  - seed: 26
    useBiome: 1
    coverageCurve:
      serializedVersion: 2
      m_Curve:
      - serializedVersion: 3
        time: -0.010470618
        value: -0.0052071447
        inSlope: 0.53050405
        outSlope: 0.53050405
        tangentMode: 34
        weightedMode: 0
        inWeight: 0.33333334
        outWeight: 0.33333334
      - serializedVersion: 3
        time: 0.45198172
        value: 0.2401257
        inSlope: 1.9256227
        outSlope: 1.9256227
        tangentMode: 0
        weightedMode: 0
        inWeight: 0.33333334
        outWeight: 0.33333334
      - serializedVersion: 3
        time: 0.55504096
        value: 0.7878468
        inSlope: 1.8901353
        outSlope: 1.8901353
        tangentMode: 0
        weightedMode: 0
        inWeight: 0.33333334
        outWeight: 0.33333334
      - serializedVersion: 3
        time: 1.0056286
        value: 1.0156162
        inSlope: 0.50549406
        outSlope: 0.50549406
        tangentMode: 34
        weightedMode: 0
        inWeight: 0.33333334
        outWeight: 0.33333334
      m_PreInfinity: 2
      m_PostInfinity: 2
      m_RotationOrder: 0
    frequency: 1
    lacunarity: 2
    octaveCount: 3
    persistence: 0.5
    size: 2000
    offset: {x: 0, y: 0}
  - seed: 28
    useBiome: 1
    coverageCurve:
      serializedVersion: 2
      m_Curve:
      - serializedVersion: 3
        time: -0.010470618
        value: -0.0052071447
        inSlope: 0.53050405
        outSlope: 0.53050405
        tangentMode: 34
        weightedMode: 0
        inWeight: 0.33333334
        outWeight: 0.33333334
      - serializedVersion: 3
        time: 0.45198172
        value: 0.2401257
        inSlope: 1.9256227
        outSlope: 1.9256227
        tangentMode: 0
        weightedMode: 0
        inWeight: 0.33333334
        outWeight: 0.33333334
      - serializedVersion: 3
        time: 0.55504096
        value: 0.7878468
        inSlope: 1.8901353
        outSlope: 1.8901353
        tangentMode: 0
        weightedMode: 0
        inWeight: 0.33333334
        outWeight: 0.33333334
      - serializedVersion: 3
        time: 1.0056286
        value: 1.0156162
        inSlope: 0.50549406
        outSlope: 0.50549406
        tangentMode: 34
        weightedMode: 0
        inWeight: 0.33333334
        outWeight: 0.33333334
      m_PreInfinity: 2
      m_PostInfinity: 2
      m_RotationOrder: 0
    frequency: 1
    lacunarity: 2
    octaveCount: 3
    persistence: 0.5
    size: 2000
    offset: {x: 0, y: 0}
  - seed: 30
    useBiome: 1
    coverageCurve:
      serializedVersion: 2
      m_Curve:
      - serializedVersion: 3
        time: -0.010470618
        value: -0.0052071447
        inSlope: 0.53050405
        outSlope: 0.53050405
        tangentMode: 34
        weightedMode: 0
        inWeight: 0.33333334
        outWeight: 0.33333334
      - serializedVersion: 3
        time: 0.45198172
        value: 0.2401257
        inSlope: 1.9256227
        outSlope: 1.9256227
        tangentMode: 0
        weightedMode: 0
        inWeight: 0.33333334
        outWeight: 0.33333334
      - serializedVersion: 3
        time: 0.55504096
        value: 0.7878468
        inSlope: 1.8901353
        outSlope: 1.8901353
        tangentMode: 0
        weightedMode: 0
        inWeight: 0.33333334
        outWeight: 0.33333334
      - serializedVersion: 3
        time: 1.0056286
        value: 1.0156162
        inSlope: 0.50549406
        outSlope: 0.50549406
        tangentMode: 34
        weightedMode: 0
        inWeight: 0.33333334
        outWeight: 0.33333334
      m_PreInfinity: 2
      m_PostInfinity: 2
      m_RotationOrder: 0
    frequency: 1
    lacunarity: 2
    octaveCount: 3
    persistence: 0.5
    size: 2000
    offset: {x: 0, y: 0}
  mainBiome:
    seed: 40
    useBiome: 1
    coverageCurve:
      serializedVersion: 2
      m_Curve:
      - serializedVersion: 3
        time: -0.010806769
        value: -0.02286143
        inSlope: 0
        outSlope: 0
        tangentMode: 136
        weightedMode: 0
        inWeight: 0.33333334
        outWeight: 0.33333334
      - serializedVersion: 3
        time: 0.5009529
        value: 1.0286458
        inSlope: Infinity
        outSlope: Infinity
        tangentMode: 0
        weightedMode: 0
        inWeight: 0.33333334
        outWeight: 0.33333334
      - serializedVersion: 3
        time: 1.0155258
        value: 1.0257571
        inSlope: 0
        outSlope: 0
        tangentMode: 0
        weightedMode: 0
        inWeight: 0.33333334
        outWeight: 0.33333334
      m_PreInfinity: 2
      m_PostInfinity: 2
      m_RotationOrder: 0
    frequency: 1
    lacunarity: 2
    octaveCount: 6
    persistence: 0.5
    size: 2000
    offset: {x: 0, y: 0}
  scannedTreesResourceType: 0
  scannedTreesResourceAmount: 500
