%YAML 1.1
%TAG !u! tag:unity3d.com,2011:
--- !u!21 &2100000
Material:
  serializedVersion: 6
  m_ObjectHideFlags: 0
  m_CorrespondingSourceObject: {fileID: 0}
  m_PrefabInternal: {fileID: 0}
  m_Name: _leafBack_Mat
  m_Shader: {fileID: 10511, guid: 0000000000000000f000000000000000, type: 0}
  m_ShaderKeywords: 
  m_LightmapFlags: 5
  m_EnableInstancingVariants: 0
  m_DoubleSidedGI: 0
  m_CustomRenderQueue: -1
  stringTagMap: {}
  disabledShaderPasses: []
  m_SavedProperties:
    serializedVersion: 3
    m_TexEnvs:
    - _MainTex:
        m_Texture: {fileID: 2800000, guid: 9ad0e7c4cf825451392a18914eec3e06, type: 3}
        m_Scale: {x: 1, y: 1}
        m_Offset: {x: 903.16125, y: 119.615845}
    m_Floats:
    - _AO: 1
    - _BaseLight: 0.35
    - _Cutoff: 0.5
    - _Occlusion: 1
    - _SquashAmount: 1
    m_Colors:
    - _Color: {r: 0.5588235, g: 0.43870255, b: 0, a: 1}
    - _TreeInstanceColor: {r: 1, g: 1, b: 1, a: 1}
    - _TreeInstanceScale: {r: 1, g: 1, b: 1, a: 1}
